{
"name": "stationtiles",
"description": "stationtiles",
"version": "2",
"minzoom": "8",
"maxzoom": "8",
"center": "-0.703125,51.177236,8",
"bounds": "-5.839145,50.122440,1.749956,58.590157",
"type": "overlay",
"format": "pbf",
"generator": "tippecanoe v1.35.0",
"generator_options": "tippecanoe -zg --output-to-directory stationtiles --coalesce-densest-as-needed -pC --force -Z8 osmdata/stations.geojson",
"json": "{\"vector_layers\": [ { \"id\": \"stations\", \"description\": \"\", \"minzoom\": 8, \"maxzoom\": 8, \"fields\": {\"@id\": \"String\", \"FIXME\": \"String\", \"addr:city\": \"String\", \"addr:country\": \"String\", \"addr:county\": \"String\", \"addr:district\": \"String\", \"addr:housename\": \"String\", \"addr:housenumber\": \"String\", \"addr:place\": \"String\", \"addr:postcode\": \"String\", \"addr:street\": \"String\", \"addr:village\": \"String\", \"air_conditioning\": \"String\", \"airside\": \"String\", \"alt_name\": \"String\", \"alt_name:gd\": \"String\", \"alt_name:ru\": \"String\", \"alt_name_1\": \"String\", \"baby_feeding\": \"String\", \"bin\": \"String\", \"building\": \"String\", \"building:levels\": \"String\", \"colour\": \"String\", \"covered\": \"String\", \"description\": \"String\", \"designation\": \"String\", \"electrified\": \"String\", \"email\": \"String\", \"erected\": \"String\", \"fare_zone\": \"String\", \"fixme\": \"String\", \"former_name\": \"String\", \"frequency\": \"String\", \"gauge\": \"String\", \"hearing_impaired:induction_loop\": \"String\", \"historic\": \"String\", \"historic:railway\": \"String\", \"image\": \"String\", \"indoor\": \"String\", \"int_name\": \"String\", \"internet_access\": \"String\", \"internet_access:access\": \"String\", \"internet_access:fee\": \"String\", \"internet_access:operator\": \"String\", \"internet_access:ssid\": \"String\", \"is_in\": \"String\", \"is_in:county\": \"String\", \"landuse\": \"String\", \"layer\": \"String\", \"length\": \"String\", \"level\": \"String\", \"levels\": \"String\", \"light_rail\": \"String\", \"line\": \"String\", \"listed_status\": \"String\", \"loc_name\": \"String\", \"local_ref\": \"String\", \"location\": \"String\", \"man_made\": \"String\", \"maxspeed\": \"String\", \"name\": \"String\", \"name:be\": \"String\", \"name:cy\": \"String\", \"name:da\": \"String\", \"name:el\": \"String\", \"name:en\": \"String\", \"name:et\": \"String\", \"name:fr\": \"String\", \"name:ga\": \"String\", \"name:gd\": \"String\", \"name:he\": \"String\", \"name:it\": \"String\", \"name:ja\": \"String\", \"name:ko\": \"String\", \"name:la\": \"String\", \"name:lt\": \"String\", \"name:nl\": \"String\", \"name:old\": \"String\", \"name:pa\": \"String\", \"name:ru\": \"String\", \"name:uk\": \"String\", \"name:zh\": \"String\", \"naptan:AtcoCode\": \"String\", \"naptan:Bearing\": \"String\", \"naptan:BusStopType\": \"String\", \"naptan:CommonName\": \"String\", \"naptan:Indicator\": \"String\", \"naptan:Landmark\": \"String\", \"naptan:LocalityCode\": \"String\", \"naptan:NaptanCode\": \"String\", \"naptan:PlusbusZoneRef\": \"String\", \"naptan:Street\": \"String\", \"naptan:verified\": \"String\", \"nat_name\": \"String\", \"network\": \"String\", \"network:subway\": \"String\", \"network:train\": \"String\", \"network:wikidata\": \"String\", \"noaddress\": \"String\", \"not:addr:postcode\": \"String\", \"not:name\": \"String\", \"note\": \"String\", \"note:location\": \"String\", \"note:name\": \"String\", \"note:platforms\": \"String\", \"note:wheelchair\": \"String\", \"official_name\": \"String\", \"old_name\": \"String\", \"old_name:cy\": \"String\", \"old_ref\": \"String\", \"opening_date\": \"String\", \"opening_hours\": \"String\", \"operator\": \"String\", \"operator:cy\": \"String\", \"operator:en\": \"String\", \"operator:subway\": \"String\", \"operator:train\": \"String\", \"operator:wikidata\": \"String\", \"owner\": \"String\", \"passenger\": \"String\", \"phone\": \"String\", \"phonetic:en\": \"String\", \"platforms\": \"String\", \"postal_code\": \"String\", \"postcode\": \"String\", \"public_transport\": \"String\", \"public_transport:version\": \"String\", \"railway\": \"String\", \"railway:etcs\": \"String\", \"railway:ref:DB\": \"String\", \"ref\": \"String\", \"ref:STANOX\": \"String\", \"ref:crs\": \"String\", \"ref:crs_2\": \"String\", \"ref:crs_Eurostar\": \"String\", \"ref:nalco\": \"String\", \"ref:nlc\": \"String\", \"ref:stanox\": \"String\", \"ref:tiploc\": \"String\", \"ref:tipoc\": \"String\", \"request_stop\": \"String\", \"route\": \"String\", \"served_by\": \"String\", \"shelter\": \"String\", \"short_name\": \"String\", \"smoking\": \"String\", \"source\": \"String\", \"source:addr\": \"String\", \"source:addr:postcode\": \"String\", \"source:building\": \"String\", \"source:name\": \"String\", \"source:name:gd\": \"String\", \"source:network\": \"String\", \"source:old_name\": \"String\", \"source:operator\": \"String\", \"source:ref\": \"String\", \"source_ref\": \"String\", \"source_ref:network\": \"String\", \"start_date\": \"String\", \"station\": \"String\", \"subway\": \"String\", \"surveillance\": \"String\", \"survey:date\": \"String\", \"tactile_paving\": \"String\", \"tfl_travelzone\": \"String\", \"tiploc\": \"String\", \"toilets\": \"String\", \"toilets:access\": \"String\", \"toilets:wheelchair\": \"String\", \"tracks\": \"String\", \"train\": \"String\", \"tram\": \"String\", \"uic_ref\": \"String\", \"upload_tag\": \"String\", \"url\": \"String\", \"usage\": \"String\", \"voltage\": \"String\", \"website\": \"String\", \"website:departures\": \"String\", \"website:overground\": \"String\", \"website:tube\": \"String\", \"west_midlands_fare_zone\": \"String\", \"wheelchair\": \"String\", \"wheelchair:description\": \"String\", \"wheelchair:note\": \"String\", \"wifi\": \"String\", \"wikidata\": \"String\", \"wikimedia_commons\": \"String\", \"wikipedia\": \"String\", \"wikipedia:en\": \"String\"} } ],\"tilestats\": {\"layerCount\": 1,\"layers\": [{\"layer\": \"stations\",\"count\": 2923,\"geometry\": \"Point\",\"attributeCount\": 190,\"attributes\": [{\"attribute\": \"@id\",\"count\": 1000,\"type\": \"string\",\"values\": [\"node/100878319\",\"node/1015760022\",\"node/102208484\",\"node/102208486\",\"node/102223697\",\"node/10280994\",\"node/10281125\",\"node/10281147\",\"node/10287644\",\"node/10288172\",\"node/10288496\",\"node/10288558\",\"node/1035485495\",\"node/10371887\",\"node/10455863\",\"node/104734\",\"node/105105\",\"node/105712447\",\"node/10606783\",\"node/1069493538\",\"node/1080583465\",\"node/1080583473\",\"node/1080583474\",\"node/1080583496\",\"node/1080583548\",\"node/1080701323\",\"node/10913764\",\"node/1092770818\",\"node/10989689\",\"node/110099217\",\"node/110101910\",\"node/110128889\",\"node/11014513\",\"node/110188053\",\"node/1104903773\",\"node/111757941\",\"node/111777233\",\"node/112074261\",\"node/11248352\",\"node/112574808\",\"node/1126273414\",\"node/113379094\",\"node/113409558\",\"node/113419698\",\"node/113520884\",\"node/1136502525\",\"node/114061125\",\"node/114065930\",\"node/114072884\",\"node/114072896\",\"node/114072903\",\"node/114072914\",\"node/114072925\",\"node/114081247\",\"node/114081256\",\"node/114975239\",\"node/1191247145\",\"node/119274464\",\"node/1198383150\",\"node/1202940916\",\"node/1203560060\",\"node/122077041\",\"node/122080936\",\"node/122098365\",\"node/122098437\",\"node/122123719\",\"node/122137367\",\"node/122234667\",\"node/122362903\",\"node/122362926\",\"node/123360606\",\"node/123360628\",\"node/1234712\",\"node/1236127056\",\"node/1239254402\",\"node/1239278035\",\"node/1241413252\",\"node/1245407063\",\"node/1256794\",\"node/1261934034\",\"node/1264468143\",\"node/1264482797\",\"node/12726073\",\"node/12858702\",\"node/1304152167\",\"node/1305070561\",\"node/1305249778\",\"node/1320101388\",\"node/1322286515\",\"node/1327562038\",\"node/135459446\",\"node/13766474\",\"node/137734387\",\"node/13883502\",\"node/13883503\",\"node/13884199\",\"node/1388665716\",\"node/13893359\",\"node/1389887370\",\"node/13973356\"]},{\"attribute\": \"FIXME\",\"count\": 2,\"type\": \"string\",\"values\": [\"?active?\",\"?sourcing?\"]},{\"attribute\": \"addr:city\",\"count\": 120,\"type\": \"string\",\"values\": [\"Aberystwyth\",\"Addlestone\",\"Ashford\",\"Banstead\",\"Bardon Mill\",\"Barking\",\"Barnstaple\",\"Bath\",\"Bempton\",\"Betchworth\",\"Bexleyheath\",\"Birmingham\",\"Blaydon on Tyne\",\"Bolton\",\"Bracknell\",\"Brampton\",\"Bridlington\",\"Brighton\",\"Bristol\",\"Burneside\",\"Burnley\",\"Cambridge\",\"Cardiff\",\"Castleford\",\"Chinley\",\"Chippenham\",\"Corbridge\",\"Coventry\",\"Croydon\",\"Dagenham\",\"Didcot\",\"Dorking\",\"Dunston\",\"Earlswood\",\"Eastleigh\",\"Ely\",\"Erith, Kent\",\"Exeter\",\"Fareham\",\"Farnham\",\"Faversham\",\"Gateshead\",\"Gillingham\",\"Glasgow\",\"Glossop\",\"Goring-on-Thames\",\"Great Bedwyn\",\"Greenfield\",\"Guildford\",\"Hamilton\",\"Harrogate\",\"Harrow\",\"Hartlepool\",\"Hastings\",\"Haydon Bridge\",\"Hellifield\",\"Hemel Hempstead\",\"Hereford\",\"Hollingbourne\",\"Horley\",\"Hornchurch\",\"Hove\",\"Hungerford\",\"Hunmanby\",\"Ilford\",\"Ipswich\",\"Kendal\",\"Kenilworth\",\"Kingston\",\"Leatherhead\",\"Leighton Buzzard\",\"Lewes\",\"London\",\"Loughborough\",\"Markinch\",\"Merstham\",\"Middlesex\",\"Milton Keynes\",\"Nafferton\",\"New Forest\",\"Newmarket\",\"Newport\",\"Northwich\",\"Norwich\",\"Nuneaton\",\"Odsey, Baldock\",\"Okehampton\",\"Pilning\",\"Poole\",\"Port Sunlight\",\"Prudhoe\",\"Ramsgate\",\"Reading\",\"Redhill\",\"Reigate\",\"Riding Mill\",\"Robertsbridge\",\"Romford\",\"Rowland's Castle\",\"Ruislip\"]},{\"attribute\": \"addr:country\",\"count\": 1,\"type\": \"string\",\"values\": [\"GB\"]},{\"attribute\": \"addr:county\",\"count\": 2,\"type\": \"string\",\"values\": [\"Devon\",\"Somerset\"]},{\"attribute\": \"addr:district\",\"count\": 1,\"type\": \"string\",\"values\": [\"Salfords\"]},{\"attribute\": \"addr:housename\",\"count\": 43,\"type\": \"string\",\"values\": [\"Alperton Station\",\"Ashford Station\",\"Becontree station\",\"Bexleyheath Station\",\"Botley Railway Station\",\"Bracknell station\",\"Brockenhurst Railway Station\",\"Bromley-by-Bow Station\",\"Dagenham East station\",\"Dagenham Heathway Station\",\"Dalston Kingsland Station\",\"Drayton Park Station\",\"East Putney Station\",\"Elm Park Station\",\"Ely Station\",\"Emerson Park Station\",\"Fareham Railway Station\",\"Goldhawk Road Station\",\"Goring & Streatley station\",\"Greenfield Station\",\"Harlesden Station\",\"Highbury & Islington Station\",\"Hillingdon Station\",\"Hornchurch Station\",\"Ingatestone Railway Station\",\"Ipswich Station\",\"Kentish Town West Station\",\"Leyton Midland Road Station\",\"Leyton Station\",\"Newcourt Station\",\"North Acton Station\",\"Northolt Station\",\"Northwick Park Station\",\"Okehampton Station\",\"Pilning Station\",\"Queen's Park Station\",\"Silver Street Station\",\"St. John's Wood Station\",\"Station Approach\",\"Station House\",\"Upminster Bridge Station\",\"Upney station\",\"York Railway Station\"]},{\"attribute\": \"addr:housenumber\",\"count\": 1,\"type\": \"string\",\"values\": [\"302\"]},{\"attribute\": \"addr:place\",\"count\": 2,\"type\": \"string\",\"values\": [\"Central Square\",\"Whetstone\"]},{\"attribute\": \"addr:postcode\",\"count\": 238,\"type\": \"string\",\"values\": [\"B79 7JT\",\"BA1 1SU\",\"BD23 4HN\",\"BD24 0EA\",\"BH12 1DF\",\"BH14 8UD\",\"BH15 2BQ\",\"BH16 5AA\",\"BN1 3XP\",\"BN1 4QS\",\"BN6 8JD\",\"BS1 6QF\",\"BS35 4JT\",\"BS5 0AF\",\"CA4 8JP\",\"CA8 1HW\",\"CB1 2JH\",\"CB7 4BS\",\"CF10 1EP\",\"CF10 3AT\",\"CF31 1RW\",\"CH62 4XB\",\"CM14 4EW\",\"CM4 0BW\",\"CM77 8YH\",\"CR2 0PL\",\"CT17 9SB\",\"CV1 2GT\",\"CV10 7JR\",\"CV8 1JJ\",\"CW7 3NF\",\"CW9 7NJ\",\"CW9 7NU\",\"DA7 4AA\",\"DE56 2EN\",\"E10 5PS\",\"E10 6JT\",\"E13 9AP\",\"E2 9EG\",\"E3 3JJ\",\"E4 6AL\",\"E4 9LA\",\"E8 1LA\",\"E8 1LL\",\"E8 2JS\",\"EC1M 6BY\",\"EC4V 4DY\",\"EN3 4QB\",\"EX2 7FR\",\"EX20 1EJ\",\"EX31 2AU\",\"EX4 3SB\",\"EX4 4NT\",\"FY6 7AA\",\"FY8 2JE\",\"G12 8SH\",\"GL51 8NP\",\"GU1 4UT\",\"GU12 5QA\",\"HA0 4LL\",\"HA3 0AT\",\"HA4 6TP\",\"HA4 9AA\",\"HA7 4PD\",\"HG1 1TE\",\"HP13 6NN\",\"HP3 9BQ\",\"HP7 9PR\",\"HR1 1BB\",\"HR6 8AR\",\"HU17\",\"IG11 8TU\",\"IG11 9LS\",\"IG3 9UH\",\"IP2 8AL\",\"IV54 8YU\",\"KT1 1UJ\",\"L1 1JD\",\"L2 2BS\",\"LA23 1AH\",\"LA8 9NG\",\"LA9 6BT\",\"LA9 6RD\",\"LL41 3HE\",\"LN5 7EW\",\"LS18 5NL\",\"LU7 2LY\",\"M30 0DN\",\"M30 0GX\",\"M90 3RR\",\"ME13 8EB\",\"ME17 1TX\",\"ME7 1XE\",\"MK3 6DZ\",\"MK9 1LA\",\"ML3 0DD\",\"N1 1DF\",\"N1 2PG\",\"N18 2UE\",\"N1C 4AP\"]},{\"attribute\": \"addr:street\",\"count\": 138,\"type\": \"string\",\"values\": [\"65 Clydesdale Street\",\"Acton Lane\",\"Alexandra Road\",\"Amersham Hill\",\"Amhurst Road\",\"Avenue Road\",\"Banstead Road\",\"Barden Road\",\"Blackwall Tunnel Northern Approach\",\"Blechynden Terrace\",\"Bonhay Road\",\"Bowes Hill\",\"Bramley Road\",\"Brighton Road\",\"Bunbury Way\",\"Burrell Road\",\"Butts Green Road\",\"Byres Road\",\"Caledonian Road\",\"Carrington Street\",\"Chapel Hill Retail Park\",\"Charlton Church Lane\",\"Chester Road\",\"Chew Valley Road\",\"Church Road\",\"Church Street\",\"Cocklebury Road\",\"College Road\",\"Colorado Way\",\"Connington Road\",\"Dalston Lane\",\"Dorchester Street\",\"Drayton Park\",\"Ealing Road\",\"Elder Gate\",\"Ellison Road\",\"Euston Road\",\"Eversholt Street\",\"Falkland Park Road\",\"Farningham Road\",\"Fishergate\",\"Gale Street\",\"Garton Road\",\"Gatehampton Road\",\"Glazebrook Lane\",\"Goldhawk Road\",\"Goodmayes Road\",\"Green Lane\",\"Green Road\",\"Green Street\",\"Greendale Road\",\"Hackney Road\",\"Hawk Hill\",\"Hawkesden Road\",\"Heathway\",\"High Road Leyton\",\"Holloway Road\",\"Junction Road\",\"Kings Road\",\"Kingsland High Street\",\"Lime Street\",\"Loampit Vale\",\"London Road\",\"Long Lane\",\"Longbridge Lane\",\"Lord Hills Bridge\",\"Lynchford Road\",\"Mandeville Road\",\"Market Street\",\"Midland Road\",\"Midland Terrace\",\"Morden Road\",\"Norfolk Street\",\"North Farm Road\",\"Northwick Avenue\",\"Old Street\",\"Olympia Way\",\"Parker Street\",\"Pebblehill Road\",\"Praed Street\",\"Prestwick Road\",\"Prince of Wales Road\",\"Queen Street\",\"Queen Victoria Street\",\"Queens Road\",\"Queensway\",\"Railway Street\",\"Rossendale Road\",\"Salusbury Road\",\"Sandbach Road\",\"Sandell Street\",\"Senghennydd Road\",\"Shelone Road\",\"Sherwood Drive\",\"South Road\",\"South Street\",\"Southern Avenue\",\"St Davids Way\",\"St Mary's Road\",\"St Marys Street\"]},{\"attribute\": \"addr:village\",\"count\": 1,\"type\": \"string\",\"values\": [\"Giggleswick\"]},{\"attribute\": \"air_conditioning\",\"count\": 1,\"type\": \"string\",\"values\": [\"no\"]},{\"attribute\": \"airside\",\"count\": 1,\"type\": \"string\",\"values\": [\"yes\"]},{\"attribute\": \"alt_name\",\"count\": 50,\"type\": \"string\",\"values\": [\"Abermaw\",\"Bath Station\",\"Birkenhead Hamilton Square\",\"Brampton (Cumbria)\",\"Brentford Station\",\"Burneside (Cumbria)\",\"Cark\",\"Chafford Hundred\",\"Clynderwen\",\"Cosham Railway Station\",\"Cricieth\",\"Crossgates\",\"Dalton-in-Furness\",\"Garth (Powys)\",\"Guildford Station\",\"Havant Railway Station\",\"Hillingdon (Swakeleys)\",\"James Cook University Hospital\",\"James Street\",\"King's Cross\",\"Kingston-upon-Thames\",\"Leamington Spa railway station\",\"Leeds City\",\"London Charing Cross\",\"Manchester United F.C. Halt\",\"Marylebone\",\"Metro Centre\",\"Middlewood (Lower)\",\"Nottingham Midland\",\"Paddington\",\"Penrith\",\"Radcliffe-on-Trent\",\"Rhoose\",\"Saint Neots\",\"Seaforth and Litherland\",\"Shepherd's Bush (Central line)\",\"St Pancras International\",\"Staveley (Cumbria)\",\"Stranraer Harbour\",\"T5A\",\"T5B\",\"T5C\",\"Tal-y-Bont\",\"Teesside Airport\",\"Temple Meads\",\"Totton Rail Station\",\"Tŷ-gwyn\",\"Warwick Rail Station\",\"Waverley\",\"West Malling for Kings Hill\"]},{\"attribute\": \"alt_name:gd\",\"count\": 3,\"type\": \"string\",\"values\": [\"Dùn Dèagh\",\"Taigh an Droma\",\"Taigh an Droma Iarach\"]},{\"attribute\": \"alt_name:ru\",\"count\": 3,\"type\": \"string\",\"values\": [\"Мраморная арка\",\"Фулхэм-бродвей\",\"Хрустальный дворец\"]},{\"attribute\": \"alt_name_1\",\"count\": 1,\"type\": \"string\",\"values\": [\"Old Trafford Halt\"]},{\"attribute\": \"baby_feeding\",\"count\": 1,\"type\": \"string\",\"values\": [\"no\"]},{\"attribute\": \"bin\",\"count\": 1,\"type\": \"string\",\"values\": [\"yes\"]},{\"attribute\": \"building\",\"count\": 1,\"type\": \"string\",\"values\": [\"train_station\"]},{\"attribute\": \"building:levels\",\"count\": 1,\"type\": \"string\",\"values\": [\"1\"]},{\"attribute\": \"colour\",\"count\": 1,\"type\": \"string\",\"values\": [\"Silver\"]},{\"attribute\": \"covered\",\"count\": 1,\"type\": \"string\",\"values\": [\"yes\"]},{\"attribute\": \"description\",\"count\": 11,\"type\": \"string\",\"values\": [\"'Summer only' station; check before you travel\",\"Ardwick Station has a very limited service. Two trains a day run towards the city on Monday to Friday mornings, and two trains away from the city in the evening. No service at weekends.\",\"Customer help points on concourse. Entire station is step free.\",\"Greenford, Network Rail\",\"Heathrow Terminal 4 - Piccadilly Line - Westbound -> to Terminal 1,2,3\",\"Hillhead subway station is a station on the Glasgow Subway, serving the Hillhead area of Glasgow, Scotland. The entrance is located on Byres Road. This station is the nearest to Glasgow Botanic Gardens and the University of Glasgow.\",\"Llanfairpwll pronounced as Llan-vire-pooll Llanfairpwllgwyngyllgogerychwyrndrobwllllantysiliogogogoch pronounced as Llan-vire-pooll-guin-gill-go-ger-u-queern-drob-ooll-llandus-ilio-gogo-goch\",\"The station has Wheelchair Access to the ticket office & platforms, although stairs connect the two. To get between them, the accessible route involves a footpath through the car park.\",\"This station has Wadsworth lifts modernised by Otis.\",\"This station is served every 2 hours, Monday-Friday in the peak direction only.\",\"reopened\"]},{\"attribute\": \"designation\",\"count\": 1,\"type\": \"string\",\"values\": [\"Unstaffed\"]},{\"attribute\": \"electrified\",\"count\": 2,\"type\": \"string\",\"values\": [\"no\",\"rail\"]},{\"attribute\": \"email\",\"count\": 2,\"type\": \"string\",\"values\": [\"contactcentre@greateranglia.co.uk\",\"customer.relations@tfwrail.wales\"]},{\"attribute\": \"erected\",\"count\": 1,\"type\": \"string\",\"values\": [\"1847\"]},{\"attribute\": \"fare_zone\",\"count\": 14,\"type\": \"string\",\"values\": [\"1\",\"1;2\",\"2\",\"2;3\",\"3\",\"3;4\",\"4\",\"5\",\"5;6\",\"6\",\"6;7\",\"7\",\"8\",\"9\"]},{\"attribute\": \"fixme\",\"count\": 4,\"type\": \"string\",\"values\": [\"?NPE Shows this SW of current location\",\"Does this station have a unique CRS ref\",\"add platforms\",\"internet_access:ssid should be prefixed with a space, but I can't add one via iD, it just strips it out...\"]},{\"attribute\": \"former_name\",\"count\": 1,\"type\": \"string\",\"values\": [\"Forge Mills\"]},{\"attribute\": \"frequency\",\"count\": 1,\"type\": \"string\",\"values\": [\"0\"]},{\"attribute\": \"gauge\",\"count\": 1,\"type\": \"string\",\"values\": [\"1435\"]},{\"attribute\": \"hearing_impaired:induction_loop\",\"count\": 1,\"type\": \"string\",\"values\": [\"yes\"]},{\"attribute\": \"historic\",\"count\": 3,\"type\": \"string\",\"values\": [\"Copland Road\",\"Partick East\",\"Penrith for Ullswater\"]},{\"attribute\": \"historic:railway\",\"count\": 1,\"type\": \"string\",\"values\": [\"station\"]},{\"attribute\": \"image\",\"count\": 5,\"type\": \"string\",\"values\": [\"File:Brading station, Isle of Wight.jpg\",\"File:Ryde St. John's Road Railway station 1971.jpg\",\"File:Sandown Railway Station, Isle of Wight, UK.jpg\",\"File:Shanklin station, Isle of Wight.jpg\",\"https://upload.wikimedia.org/wikipedia/commons/thumb/9/9b/Harlow_Mill_Station.jpg/330px-Harlow_Mill_Station.jpg\"]},{\"attribute\": \"indoor\",\"count\": 2,\"type\": \"string\",\"values\": [\"area\",\"yes\"]},{\"attribute\": \"int_name\",\"count\": 1,\"type\": \"string\",\"values\": [\"Edinburgh\"]},{\"attribute\": \"internet_access\",\"count\": 3,\"type\": \"string\",\"values\": [\"no\",\"wlan\",\"yes\"]},{\"attribute\": \"internet_access:access\",\"count\": 1,\"type\": \"string\",\"values\": [\"customers;Virgin Media;EE;Vodafone;O2\"]},{\"attribute\": \"internet_access:fee\",\"count\": 3,\"type\": \"string\",\"values\": [\"no\",\"partial\",\"yes\"]},{\"attribute\": \"internet_access:operator\",\"count\": 1,\"type\": \"string\",\"values\": [\"Virgin Media\"]},{\"attribute\": \"internet_access:ssid\",\"count\": 2,\"type\": \"string\",\"values\": [\"Free-Euston-Station-WiFi\",\"Virgin Media WiFi\"]},{\"attribute\": \"is_in\",\"count\": 2,\"type\": \"string\",\"values\": [\"Edinburgh, Scotland, UK\",\"UK, England, West Yorkshire, Menston\"]},{\"attribute\": \"is_in:county\",\"count\": 1,\"type\": \"string\",\"values\": [\"Nottinghamshire\"]},{\"attribute\": \"landuse\",\"count\": 1,\"type\": \"string\",\"values\": [\"railway\"]},{\"attribute\": \"layer\",\"count\": 6,\"type\": \"string\",\"values\": [\"-1\",\"-2\",\"-3\",\"1\",\"2\",\"3\"]},{\"attribute\": \"length\",\"count\": 4,\"type\": \"string\",\"values\": [\"110\",\"200.3\",\"90\",\"923\"]},{\"attribute\": \"level\",\"count\": 7,\"type\": \"string\",\"values\": [\"-1\",\"-1-0\",\"-2\",\"-4\",\"0\",\"1\",\"2\"]},{\"attribute\": \"levels\",\"count\": 2,\"type\": \"string\",\"values\": [\"1\",\"2\"]},{\"attribute\": \"light_rail\",\"count\": 1,\"type\": \"string\",\"values\": [\"yes\"]},{\"attribute\": \"line\",\"count\": 18,\"type\": \"string\",\"values\": [\"Bakerloo\",\"Central\",\"Circle;District\",\"District\",\"District, Circle, Piccadilly\",\"District, Piccadilly\",\"District;Circle\",\"Jubilee\",\"Metropolitan\",\"Metropolitan, Piccadilly\",\"Metropolitan;Circle;Hammersmith & City\",\"Metropolitan;Jubilee\",\"Northern\",\"Northern City\",\"Overground\",\"Overground;Victoria\",\"Piccadilly\",\"Victoria\"]},{\"attribute\": \"listed_status\",\"count\": 1,\"type\": \"string\",\"values\": [\"Grade II*\"]},{\"attribute\": \"loc_name\",\"count\": 4,\"type\": \"string\",\"values\": [\"Ashton\",\"Central Station\",\"Llanfairpwllgwyngyllgogerychwyrndrobwllllantysiliogogogoch\",\"Saint James Park\"]},{\"attribute\": \"local_ref\",\"count\": 2,\"type\": \"string\",\"values\": [\"AT\",\"SE;NW\"]},{\"attribute\": \"location\",\"count\": 1,\"type\": \"string\",\"values\": [\"underground\"]},{\"attribute\": \"man_made\",\"count\": 1,\"type\": \"string\",\"values\": [\"bridge\"]},{\"attribute\": \"maxspeed\",\"count\": 1,\"type\": \"string\",\"values\": [\"20 mph\"]},{\"attribute\": \"name\",\"count\": 1000,\"type\": \"string\",\"values\": [\"Abbey Road\",\"Abbey Wood\",\"Aber\",\"Abercynon\",\"Aberdare\",\"Aberdeen\",\"Aberdour\",\"Aberdyfi\",\"Abererch\",\"Abergavenny\",\"Abergele and Pensarn\",\"Aberystwyth\",\"Accrington\",\"Achanalt\",\"Achnasheen\",\"Achnashellach\",\"Acklington\",\"Acle\",\"Acocks Green\",\"Acton Bridge\",\"Acton Central\",\"Acton Main Line\",\"Acton Town\",\"Adderley Park\",\"Addiewell\",\"Addlestone\",\"Adisham\",\"Adlington\",\"Adlington (Cheshire)\",\"Adwick\",\"Aigburth\",\"Ainsdale\",\"Aintree\",\"Airbles\",\"Airdrie\",\"Airport\",\"Albany Park\",\"Albrighton\",\"Alderley Edge\",\"Aldermaston\",\"Aldershot\",\"Aldgate\",\"Aldgate East\",\"Aldrington\",\"Alexandra Palace\",\"Alexandra Parade\",\"Alexandria\",\"Alfreton\",\"All Saints\",\"Allens West\",\"Alloa\",\"Alness\",\"Alnmouth\",\"Alperton\",\"Alresford\",\"Alsager\",\"Althorne\",\"Althorpe\",\"Altnabreac\",\"Alton\",\"Altrincham\",\"Alvechurch\",\"Ambergate\",\"Amberley\",\"Amersham\",\"Ammanford\",\"Ancaster\",\"Anderston\",\"Andover\",\"Anerley\",\"Angel\",\"Angmering\",\"Annan\",\"Anniesland\",\"Ansdell & Fairhaven\",\"Apperley Bridge\",\"Appleby\",\"Appledore\",\"Appleford\",\"Appley Bridge\",\"Apsley\",\"Arbroath\",\"Archway\",\"Ardgay\",\"Ardlui\",\"Ardrossan Harbour\",\"Ardrossan South Beach\",\"Ardrossan Town\",\"Ardwick\",\"Argyle Street\",\"Arisaig\",\"Arlesey\",\"Armadale\",\"Armathwaite\",\"Arnos Grove\",\"Arnside\",\"Arram\",\"Arrochar and Tarbet\",\"Arsenal\",\"Arundel\"]},{\"attribute\": \"name:be\",\"count\": 2,\"type\": \"string\",\"values\": [\"Бракнэл\",\"Топшам\"]},{\"attribute\": \"name:cy\",\"count\": 113,\"type\": \"string\",\"values\": [\"Aberdaugleddau\",\"Aberdyfi\",\"Aberdâr\",\"Abergele a Phensarn\",\"Abergwaun ac Wdig\",\"Abermaw\",\"Aberpennar\",\"Abertawe\",\"Aberystwyth\",\"Arberth\",\"Bae Caerdydd\",\"Bae Colwyn\",\"Bargoed\",\"Brŵm\",\"Bwcle\",\"Caer\",\"Caerdydd Canolog\",\"Caerdydd Heol y Frenhines\",\"Caerfyrddin\",\"Caergrawnt\",\"Caergybi\",\"Caersŵs\",\"Cas-gwent\",\"Casnewydd\",\"Castell-nedd\",\"Cilgeti\",\"Cnwclas\",\"Cryw\",\"Cwmbrân\",\"Cydweli\",\"Cyffordd Dyfi\",\"Cyffordd Llandudno\",\"Cyffordd Twnnel Hafren\",\"Dinas y Bwlch\",\"Dinbych-y-Pysgod\",\"Doc Penfro\",\"Dociau'r Barri\",\"Eglwys Wen\",\"Eneu'r Glyn a Pharc Churchill\",\"FFair-fach\",\"Ffynnon Taf\",\"Glanyfferi\",\"Gogledd Llanrwst\",\"Grangetown\",\"Hendy-gwyn\",\"Hwlffordd\",\"Llandybïe\",\"Llandyfái\",\"Llanfairpwllgwyngyllgogerychwyrndrobwllllantysiliogogogoch\",\"Llanhiledd\",\"Llanilltud Fawr\",\"Llanllieni\",\"Llansawel\",\"Llanymddyfri\",\"Llwydlo\",\"Maenorbŷr\",\"Maes Awyr Rhyngwladol Caerdydd Y Rhws\",\"Maesteg Heol Ewenni\",\"Melin Wyllt\",\"Merthyr Tudful\",\"Mynwent-y-Crynwyr\",\"Parc Ninian\",\"Parc Waun-Gron\",\"Parcffordd Glyn Ebwy\",\"Parcffordd Port Talbot\",\"Pen-bre a Phorth Tywyn\",\"Pen-y-Bont ar Ogwr\",\"Penalun\",\"Penarlâg\",\"Penfro\",\"Penhelyg\",\"Pentrebach\",\"Piccadilly Manceinion\",\"Pont Benarlâg\",\"Pont Rufeinig\",\"Pont-y-pŵl a New Inn\",\"Porthladd Abergwaun\",\"Pye Corner\",\"Radur\",\"Rhisga a Phont-y-meistr\",\"Rhiwabon\",\"Rhydaman\",\"Rhydychen\",\"Sgiwen\",\"Temple Meads Bryste\",\"Tre-gŵyr\",\"Trecelyn\",\"Tref Glyn Ebwy\",\"Tref-y-Clawdd\",\"Trefforest\",\"Tregatwg\",\"Treorci\",\"Troed-y-rhiw\",\"Tŷ Croes\",\"Tŷ-du\",\"Wrecsam Canolog\",\"Wrecsam Cyffredinol\",\"Y Barri\",\"Y Borth\",\"Y Drenewydd\"]},{\"attribute\": \"name:da\",\"count\": 18,\"type\": \"string\",\"values\": [\"Aldgate Station\",\"Angel Station\",\"Blackfriars Station\",\"Borough Station\",\"Cannon Street Station\",\"Euston Station\",\"Gloucester Road Station\",\"Great Portland Street\",\"London Bridge Station\",\"Marble Arch Station\",\"Marylebone Station\",\"Moorgate Station\",\"Notting Hill Gate Station\",\"Old Street Station\",\"Oxford Circus Station\",\"Regent's Park Station\",\"Tower Hill\",\"Westminster Station\"]},{\"attribute\": \"name:el\",\"count\": 1,\"type\": \"string\",\"values\": [\"Χίβυρή & Ίσλινγκτον\"]},{\"attribute\": \"name:en\",\"count\": 56,\"type\": \"string\",\"values\": [\"Aberdovey\",\"Abergavenny\",\"Abergele and Pensarn\",\"Achnashellach\",\"Alness\",\"Ammanford\",\"Ardgay\",\"Barmouth\",\"Barry\",\"Beauly\",\"Bexhill\",\"Billingham\",\"Bournemouth\",\"Bristol Temple Meads\",\"Brora\",\"Cardiff Central\",\"Chester\",\"Colwyn Bay\",\"Conon Bridge\",\"Covent Garden\",\"Crewe\",\"Crystal Palace\",\"Dovey Junction\",\"Exmouth\",\"Fearn\",\"Flint\",\"Forres\",\"Forsinard\",\"Garve\",\"Golspie\",\"Haymarket\",\"Helmsdale\",\"Invergordon\",\"Lairg\",\"Lamphey\",\"Llandudno Junction\",\"Llanhilleth\",\"Manorbier\",\"Milford Haven\",\"Newtown\",\"North Llanrwst\",\"Pembroke\",\"Pembroke Dock\",\"Penally\",\"Penhelig\",\"Plockton\",\"Rogart\",\"Roman Bridge\",\"Swansea\",\"Tain\",\"Topsham\",\"Tyndrum Lower\",\"Tŷ Croes\",\"Upper Tyndrum\",\"Valley\",\"Wrexham General\"]},{\"attribute\": \"name:et\",\"count\": 2,\"type\": \"string\",\"values\": [\"Piccadilly Circuse metroojaam\",\"Waterloo metroojaam\"]},{\"attribute\": \"name:fr\",\"count\": 4,\"type\": \"string\",\"values\": [\"Gare de Canonbury\",\"Gare de Crystal Palace\",\"Gare de Dalston Junction\",\"Gare de Saint-Pancras International\"]},{\"attribute\": \"name:ga\",\"count\": 1,\"type\": \"string\",\"values\": [\"Ceann an Droichid\"]},{\"attribute\": \"name:gd\",\"count\": 120,\"type\": \"string\",\"values\": [\"A' Chrìon Làraich\",\"A' Mhanachainn\",\"A'Chorpaich\",\"Achadh na Sìne\",\"Achadh nan Allt\",\"Achadh nan Seileach\",\"Aiseag na Coingheil\",\"Alanais\",\"Allt nam Breac\",\"Am Blàr Dubh\",\"Am Ploc\",\"An Aghaidh Mhor\",\"An Ard-Ruidh\",\"An Druìm Dubh\",\"An Gearasdan\",\"An Ruadh-Ghleann\",\"An Tairbeart\",\"An Tulach\",\"An t-Òban\",\"Anainn\",\"Arasaig\",\"Armadal\",\"Bail Ùr an t-Slèibh\",\"Baile Chloichridh\",\"Baile Chè\",\"Baile Dhubhthaich\",\"Baile Eilidh Ard\",\"Baile Mosaidh\",\"Baile Nighean Sheadna\",\"Baile na Drochaid\",\"Banbhaidh\",\"Blàr Athall\",\"Bruach Thuaidh\",\"Brùra\",\"Bun Ilidh\",\"Bun a' Chnuic\",\"Bàgh nan Uaimhean\",\"Cair Dhòmhnaill\",\"Caol Loch Aillse\",\"Ceann a' Gheàrrloch\",\"Ceann a' Ghiùthsaich\",\"Coire Odhar\",\"Croc Churraich\",\"Cul Raoin\",\"Càrn Ùstaidh\",\"Càrn-Tìn\",\"Dail Chuinnidh\",\"Dail Mhàilidh\",\"Deis\",\"Drochaid Ailein\",\"Drochaid Chårr\",\"Drochaid Ruaidh\",\"Drochaid Sguideil\",\"Drochaid Urchaidh\",\"Drochaid an Aonachain\",\"Druim Gailleach\",\"Dun Mheinidh\",\"Dùn Breatann Meadhain\",\"Dùn Chailleann is Braonan\",\"Dùn Dè\",\"Dùn Phrìs\",\"Dùn na Creige\",\"Eaglais Labhrainn\",\"Eilginn\",\"Farrais\",\"Fors An-Àird\",\"Gairbh\",\"Glaschu Meadhain\",\"Gleann Fhionnainn\",\"Goillspidh\",\"Gyle a Deas\",\"Hailes an Iar\",\"Hunndaidh\",\"Inbhir Chèitinn\",\"Inbhir Ghobhraidh\",\"Inbhir Ghòrdain\",\"Inbhir Narann\",\"Inbhir Nis\",\"Inbhir Pheofharain\",\"Inbhir Sin\",\"Inbhir Theòrsa\",\"Inbhir Uaraidh\",\"Inbhir Ùige\",\"Innis\",\"Leth-Pheairt\",\"Locarbaidh\",\"Loch Ailleart\",\"Loch Laoicheart\",\"Luirg\",\"Machair Bharraidh\",\"Malaig\",\"Manachainn Rois\",\"Margad an Fheòir\",\"Mon Rois\",\"Monadh Fotha\",\"Mòrar\",\"Obar Bhrothaig\",\"Obar Dheathain\",\"Pairèid Alexandra\",\"Pen-y-bont\"]},{\"attribute\": \"name:he\",\"count\": 2,\"type\": \"string\",\"values\": [\"תחנת הרכבת התחתית קינגס קרוס סיינט פנקראס\",\"תחנת צ'רינג קרוס\"]},{\"attribute\": \"name:it\",\"count\": 3,\"type\": \"string\",\"values\": [\"Blečlis\",\"Česteris\",\"Čipnamas\"]},{\"attribute\": \"name:ja\",\"count\": 2,\"type\": \"string\",\"values\": [\"エッジウェア\",\"ブラクフライヤズ (黒修道士) 駅\"]},{\"attribute\": \"name:ko\",\"count\": 3,\"type\": \"string\",\"values\": [\"글래스고 중앙역\",\"리버풀 라임 스트리트 역\",\"퀸 스트리트 기차역\"]},{\"attribute\": \"name:la\",\"count\": 1,\"type\": \"string\",\"values\": [\"Statio Fratribi Negri\"]},{\"attribute\": \"name:lt\",\"count\": 38,\"type\": \"string\",\"values\": [\"Barnstaplas\",\"Bazildonas\",\"Bedvertas\",\"Beizingstokas\",\"Bekshilis\",\"Benflitas\",\"Bentlis\",\"Beri Sent Edmundsas\",\"Bertonas prie Trento\",\"Bibingtonas\",\"Bilerikis\",\"Bilinghamas\",\"Bišops Storfordas\",\"Bornmutas\",\"Bostonas\",\"Braknelis\",\"Breintris\",\"Brentvudas\",\"Bridlingtonas\",\"Bridžendas\",\"Bridžvoteris\",\"Brighausas\",\"Darlingtonas\",\"Dartfordas\",\"Darvenas\",\"Didysis Jarmutas\",\"Didysis Molvernas\",\"Donkasteris\",\"Eklsas\",\"Eksmutas\",\"Eras\",\"Erdris\",\"Ermstonas\",\"Ervinas\",\"Farnamas\",\"Felingas\",\"Gaislis\",\"Gilfordas\"]},{\"attribute\": \"name:nl\",\"count\": 1,\"type\": \"string\",\"values\": [\"Station Upminster\"]},{\"attribute\": \"name:old\",\"count\": 1,\"type\": \"string\",\"values\": [\"Gowerton North\"]},{\"attribute\": \"name:pa\",\"count\": 1,\"type\": \"string\",\"values\": [\"ਸਾਊਥਹਾਲ\"]},{\"attribute\": \"name:ru\",\"count\": 130,\"type\": \"string\",\"values\": [\"Альдгейт-ист\",\"Арчвей\",\"Барбакан\",\"Баронс-Корт\",\"Баттерси-парк\",\"Бейкер-стрит\",\"Бейсуотер\",\"Блэкфраерс\",\"Блэкфрайерс\",\"Блэкхорс-роуд\",\"Бонд-стрит\",\"Боро\",\"Боу-роуд\",\"Брент-Кросс\",\"Брикстон\",\"Бэнк\",\"Бэтнал-грин\",\"Ватерлоо\",\"Вест-Кенсингтон\",\"Вестминстер\",\"Виктория\",\"Воксхолл\",\"Вуд-грин\",\"Вуд-лейн\",\"Гайд-парк-корнер\",\"Глостер Роуд\",\"Грин-парк\",\"Гудж-стрит\",\"Джипси-Хилл\",\"Империал-Уорф\",\"Ист-Актон\",\"Ист-Путни\",\"Ист-Финчли\",\"Камден-таун\",\"Квинсвей\",\"Кеннингтон\",\"Кингс-Кросс Сент-Панкрасс\",\"Клэпхем-Коммон\",\"Клэпхем-Норт\",\"Клэпхем-Саут\",\"Клэпхем-Хай-стрит\",\"Ковент-Гарден\",\"Кристал-Пэлас\",\"Куинстаун-Роуд\",\"Кэннон Стрит\",\"Ламбет-норт\",\"Ланкастер-гейт\",\"Лафборо-Джанкшен\",\"Лестер-сквер\",\"Лланвайрпулл\",\"Лэдброк-Гроув\",\"Майл-Энд\",\"Марбл-Арч\",\"Мейда-вейл\",\"Монумент\",\"Мургейт\",\"Мэнор-хаус\",\"Мэншн Хаус\",\"Найтсбридж\",\"Норбери\",\"Норт-Далвич\",\"Ноттинг Хилл Гейт\",\"Овал\",\"Оксфорд-Серкус\",\"Олд-стрит\",\"Олдгейт\",\"Паддингтон\",\"Паддингтон (линии Бейкерлу, Дистрикт и Кольцевая)\",\"Парсонс-грин\",\"Пикадилли-сёркус\",\"Пимлико\",\"Путни\",\"Риджентс-парк\",\"Рэйвенскорт-парк\",\"Саутуарк\",\"Саутфилдс\",\"Свисс-коттедж\",\"Сент-Джеймс Парк\",\"Сент-Полс\",\"Сити-Темзлинк\",\"Слоун-сквер\",\"Степни-грин\",\"Стокуэлл\",\"Стретем\",\"Стретем-Коммон\",\"Стретем-Хилл\",\"Талс-Хилл\",\"Тауэр Хилл\",\"Тафнелл-парк\",\"Темпль\",\"Тернпайк-лейн\",\"Топшем\",\"Тутинг\",\"Тутинг-Бек\",\"Тутинг-Бродвей\",\"Уайтчепел\",\"Уимблдон\",\"Уимблдон-парк\",\"Улица Ливерпуль\",\"Уолтемстоу Сентрал\"]},{\"attribute\": \"name:uk\",\"count\": 1,\"type\": \"string\",\"values\": [\"Ватерлоо\"]},{\"attribute\": \"name:zh\",\"count\": 1,\"type\": \"string\",\"values\": [\"金丝雀码头\"]},{\"attribute\": \"naptan:AtcoCode\",\"count\": 1000,\"type\": \"string\",\"values\": [\"490000257374\",\"9100ABDARE\",\"9100ABDO\",\"9100ABDVY\",\"9100ABER\",\"9100ABGLELE\",\"9100ABRCYNS\",\"9100ABRDEEN\",\"9100ABRE\",\"9100ABRGVNY\",\"9100ABRYSTH\",\"9100ABWD\",\"9100ACBG\",\"9100ACHANLT\",\"9100ACHHSHL\",\"9100ACHILCK\",\"9100ACHNSHN\",\"9100ACKLNGT\",\"9100ACLE\",\"9100ACOCKSG\",\"9100ACRNGTN\",\"9100ACTNCTL\",\"9100ACTONML\",\"9100ADERLYP\",\"9100ADIEWEL\",\"9100ADISHAM\",\"9100ADLC\",\"9100ADLESTN\",\"9100ADNL\",\"9100ADWICK\",\"9100AGHTNPH\",\"9100AIGBURT\",\"9100AINSDAL\",\"9100AINTREE\",\"9100AIRBLES\",\"9100AIRDRIE\",\"9100ALBNYPK\",\"9100ALBRGHT\",\"9100ALDEDGE\",\"9100ALDMSTN\",\"9100ALDRSHT\",\"9100ALDTON\",\"9100ALERTN\",\"9100ALEXNDP\",\"9100ALFRETN\",\"9100ALLENSW\",\"9100ALLOA\",\"9100ALNESS\",\"9100ALNMOTH\",\"9100ALRESFD\",\"9100ALSAGER\",\"9100ALSHAM\",\"9100ALTHORN\",\"9100ALTNBRC\",\"9100ALTON\",\"9100ALTPE\",\"9100ALTRNHM\",\"9100ALVCHRC\",\"9100ALXANDR\",\"9100ALXPD\",\"9100AMBERGT\",\"9100AMERSHM\",\"9100AMLY\",\"9100AMMANFD\",\"9100ANCASTR\",\"9100ANDOVER\",\"9100ANDRSTN\",\"9100ANGMRNG\",\"9100ANNAN\",\"9100ANSDELL\",\"9100ANSL\",\"9100APBY\",\"9100APDR\",\"9100APERLYB\",\"9100APLYBDG\",\"9100APPLEFD\",\"9100APSLEY\",\"9100ARBROTH\",\"9100ARCHRAT\",\"9100ARDGAY\",\"9100ARDLUI\",\"9100ARDRSHB\",\"9100ARDRSSB\",\"9100ARDRSTN\",\"9100ARDWICK\",\"9100ARGYLST\",\"9100ARISAIG\",\"9100ARLSEY\",\"9100ARMDALE\",\"9100ARMTHWT\",\"9100ARNSIDE\",\"9100ARRAM\",\"9100ARUNDEL\",\"9100ASCOT\",\"9100ASCTUWD\",\"9100ASFDMSX\",\"9100ASFIELD\",\"9100ASHBRYS\",\"9100ASHCHRC\",\"9100ASHD\"]},{\"attribute\": \"naptan:Bearing\",\"count\": 1,\"type\": \"string\",\"values\": [\"N\"]},{\"attribute\": \"naptan:BusStopType\",\"count\": 1,\"type\": \"string\",\"values\": [\"CUS\"]},{\"attribute\": \"naptan:CommonName\",\"count\": 4,\"type\": \"string\",\"values\": [\"Charlton\",\"Morecambe Rail Station\",\"Railway Station\",\"Wembley Park\"]},{\"attribute\": \"naptan:Indicator\",\"count\": 2,\"type\": \"string\",\"values\": [\"86374\",\"at\"]},{\"attribute\": \"naptan:Landmark\",\"count\": 1,\"type\": \"string\",\"values\": [\"Wigton Railway Station\"]},{\"attribute\": \"naptan:LocalityCode\",\"count\": 1,\"type\": \"string\",\"values\": [\"E0015996\"]},{\"attribute\": \"naptan:NaptanCode\",\"count\": 1,\"type\": \"string\",\"values\": [\"cumagwag\"]},{\"attribute\": \"naptan:PlusbusZoneRef\",\"count\": 1,\"type\": \"string\",\"values\": [\"NWCSTLE\"]},{\"attribute\": \"naptan:Street\",\"count\": 1,\"type\": \"string\",\"values\": [\"Station Road spur\"]},{\"attribute\": \"naptan:verified\",\"count\": 1,\"type\": \"string\",\"values\": [\"no\"]},{\"attribute\": \"nat_name\",\"count\": 1,\"type\": \"string\",\"values\": [\"Caerfyrddin\"]},{\"attribute\": \"network\",\"count\": 24,\"type\": \"string\",\"values\": [\"Cotswold Line\",\"Docklands Light Railway\",\"Glasgow Subway\",\"Heathrow Airport\",\"London Overground\",\"London Underground\",\"London Underground;Docklands Light Railway\",\"London Underground;London Overground\",\"National Rail\",\"National Rail;Cholsey & Wallingford Railway\",\"National Rail;Docklands Light Railway\",\"National Rail;London Overground\",\"National Rail;London Overground;TfL Rail\",\"National Rail;London Underground\",\"National Rail;London Underground;Docklands Light Railway\",\"National Rail;London Underground;London Overground\",\"National Rail;London Underground;London Overground;Docklands Light Railway;TfL Rail\",\"National Rail;London Underground;London Overground;TfL Rail\",\"National Rail;London Underground;London Trams\",\"National Rail;London Underground;TfL Rail\",\"National Rail;TfL Rail\",\"Stansted Airport Terminal Link\",\"TfL Rail\",\"Tyne and Wear Metro\"]},{\"attribute\": \"network:subway\",\"count\": 2,\"type\": \"string\",\"values\": [\"London Overground\",\"London Underground\"]},{\"attribute\": \"network:train\",\"count\": 3,\"type\": \"string\",\"values\": [\"London Overground\",\"London Overground;National Rail\",\"National Rail\"]},{\"attribute\": \"network:wikidata\",\"count\": 1,\"type\": \"string\",\"values\": [\"Q26334\"]},{\"attribute\": \"noaddress\",\"count\": 1,\"type\": \"string\",\"values\": [\"yes\"]},{\"attribute\": \"not:addr:postcode\",\"count\": 2,\"type\": \"string\",\"values\": [\"HA10 5JT\",\"IV54 8YH\"]}]}]}}"
}
